<svg id="Layer_1" xmlns="http://www.w3.org/2000/svg" viewBox="0 0 64 64">
  <switch>
    <g fill="#b2223f">
      <path d="M-157.35-79.54h-14.61c-.53 0-.54 0-.53-.53.03-1.22.19-2.41.57-3.57.55-1.71 1.59-2.99 3.21-3.82 1.61-.81 3.31-1.4 5.01-1.97.65-.22 1.3-.44 1.93-.7.87-.35 1.12-1.06 1.19-1.9.01-.12-.06-.21-.12-.3-1.46-2.06-2.24-4.39-2.64-6.85-.24-1.46-.31-2.92 0-4.37.47-2.19 1.79-3.53 4-3.96 1.3-.25 2.6-.26 3.89.02 2.24.48 3.6 1.95 3.96 4.22.39 2.52-.06 4.94-.85 7.32-.4 1.19-.93 2.31-1.64 3.35-.13.19-.17.37-.13.59l.06.36c.12.73.46 1.25 1.18 1.56.95.41 1.93.7 2.9 1.04 1.44.49 2.84 1.06 4.19 1.76 1.9.99 2.88 2.61 3.32 4.63.19.86.3 1.73.3 2.62 0 .49 0 .49-.49.49-4.89.01-9.8.01-14.7.01z" fill="#b2223f" stroke="#000" stroke-width="3" stroke-miterlimit="10"/>
      <path d="M317.46-77c-.62-.23-1.09-.61-1.25-1.28-.06-.24-.08-.5-.08-.75v-26.91c0-.79.2-1.48.97-1.87.26-.13.53-.19.82-.19h12.19c.5 0 .92.18 1.28.51 2.38 2.2 4.76 4.39 7.14 6.58.48.44.6 1 .6 1.62V-79.09c0 .27-.01.55-.08.81-.16.67-.63 1.05-1.25 1.28h-20.34zm.87-15.5c0 4.32 0 8.65-.01 12.97 0 .3.07.4.38.4 5.95-.01 11.9-.01 17.84 0 .32 0 .38-.1.38-.4-.01-5.98-.01-11.96-.01-17.93 0-.4 0-.4-.4-.4h-5.56c-.28 0-.56-.02-.84-.1-1.04-.28-1.71-1.17-1.72-2.29-.01-1.72 0-3.45 0-5.17 0-.42 0-.42-.41-.42h-9.25c-.41 0-.41 0-.41.42.01 4.31.01 8.61.01 12.92zm12.35-11.97c-.03.01-.05.03-.08.04V-100.5c0 .44.01.44.43.44h3.96c.1 0 .2.03.33-.06-1.55-1.46-3.1-2.91-4.64-4.35z"/>
      <path d="M329.41-93.95h5.2c.42 0 .42 0 .42.42 0 .47-.01.95.01 1.42.01.28-.09.37-.36.37-1.79-.01-3.59 0-5.38 0h-5.14c-.4 0-.41-.01-.41-.4 0-.47.01-.95-.01-1.42-.01-.29.1-.38.38-.38 1.77-.01 3.53-.01 5.29-.01zM329.41-89.72h5.2c.42 0 .42 0 .42.42 0 .47-.01.95.01 1.42.01.28-.09.37-.36.37-1.79-.01-3.59 0-5.38 0h-5.14c-.4 0-.41-.01-.41-.4 0-.47.01-.95-.01-1.42-.01-.29.1-.38.38-.38 1.77 0 3.53-.01 5.29-.01zM329.39-83.28h-5.23c-.4 0-.41-.01-.41-.4v-1.39c0-.4.01-.41.41-.41h9.61c.31 0 .63.01.94 0 .24-.01.34.08.34.33-.01.49-.02.99 0 1.48.01.31-.09.4-.39.4-1.67-.01-3.35-.01-5.02-.01h-.25zM321.39-89.96c.73 0 1.35.62 1.35 1.35 0 .73-.62 1.35-1.35 1.35-.74 0-1.34-.6-1.34-1.34 0-.76.6-1.36 1.34-1.36zM320.05-84.36c0-.75.58-1.36 1.32-1.37.73-.01 1.36.6 1.37 1.33.01.73-.6 1.36-1.33 1.36-.75.01-1.36-.58-1.36-1.32zM321.39-94.2c.73 0 1.35.62 1.35 1.35 0 .73-.62 1.34-1.35 1.34-.74 0-1.34-.61-1.34-1.35 0-.74.6-1.34 1.34-1.34z"/>
      <g>
        <path class="st1" d="M314.7 144.48v-.11c2.89.78 5.43-.07 7.83-1.62-.27-.12-.54-.15-.8-.21-1.83-.4-3.29-1.31-4.14-3.03-.23-.47-.17-.58.36-.59.56-.02 1.13 0 1.69 0-.04-.02-.08-.05-.13-.07-2.31-.98-3.4-2.82-3.73-5.21-.08-.61-.01-.65.61-.46.51.16 1.04.23 1.67.24-.29-.27-.52-.47-.74-.68-1.82-1.78-2.22-3.87-1.13-5.97.32-.61.35-.61.8-.11 1.78 2.01 3.9 3.57 6.36 4.65 1.38.61 2.82 1.03 4.34 1.17.42.04.61-.12.59-.55-.01-.31.01-.62.01-.92.03-3.01 1.48-4.89 4.38-5.68h1.85c.96.26 1.84.68 2.55 1.39.32.32.63.36 1.03.2 1.02-.41 1.93-.99 2.84-1.58h.22c-.45 1.31-1.26 2.4-2.35 3.47 1.23-.1 2.21-.49 3.22-.75v.11c-.69.92-1.5 1.72-2.43 2.39-.21.15-.31.32-.3.59.01.82-.02 1.63-.17 2.44-1.08 6.07-4.34 10.4-10.16 12.68-1.36.53-2.8.73-4.23.94h-2.61c-.07-.02-.14-.05-.21-.06-2.65-.3-5.02-1.27-7.22-2.67z"/>
      </g>
      <g>
        <path class="st1" d="M-170.61 126.52c.65-1.6 1.85-2.24 3.55-2.2 2.7.05 5.41.01 8.12.01.38 0 .76-.03.98.43.42.85.34 1.11-.57 1.43-.58.2-1.11.44-1.49.96-.24.32-.61.27-.95.27-1.95 0-3.91.02-5.86-.01-.62-.01-.81.2-.81.82.02 3.29.03 6.57 0 9.86-.01.64.21.79.82.79 5.65-.02 11.3-.03 16.94.01.99.01 1.46-.55 1.9-1.25.13-.21.19-.48.28-.72.15-.39.28-.8.83-.72.63.09.99.46 1 1.04.01 1.01.03 2.02-.01 3.03-.07 1.89-1.3 3.06-3.17 3.06-6.03 0-12.07-.03-18.1.02-1.67.01-2.8-.61-3.45-2.13-.01-4.91-.01-9.81-.01-14.7zm12.24 15.21h2.83c.4 0 .74-.12.75-.6.02-.51-.33-.66-.76-.66-1.82-.01-3.64 0-5.47 0-.44 0-.78.15-.79.65-.01.52.38.61.8.62.89-.01 1.77-.01 2.64-.01z"/>
        <path class="st1" d="M-141.61 129.61c-.32.31-.73.43-1.14.57-1.41.49-1.85 1.54-1.22 2.9.52 1.12.48 1.19-.21 1.92-.48.51-.96.55-1.55.24-.53-.28-1.07-.55-1.71-.38-.84.23-1.28.82-1.48 1.62-.16.63-.44 1.04-1.17 1.03-1.07-.01-1.22-.07-1.56-.97-.22-.58-.4-1.18-1.02-1.5-.72-.37-1.4-.24-2.09.11-.94.48-1.7.21-2.16-.73-.23-.48.03-.88.24-1.27.41-.74.43-1.45-.02-2.19-.3-.49-.79-.64-1.27-.81-1.04-.37-1.32-.9-1.06-1.98.13-.53.58-.65 1.01-.78.83-.27 1.46-.7 1.63-1.63.1-.55-.12-1.01-.34-1.47-.44-.93-.15-1.74.77-2.15.27-.12.54-.09.81.04.35.16.7.33 1.07.45.87.27 1.8-.18 2.19-1.01.24-.52.29-1.13.75-1.55h1.68c.26.27.4.6.53.95.64 1.71 1.53 2.07 3.18 1.3.81-.38 1.06-.31 1.75.36.51.49.5 1 .15 1.56-.07.11-.11.23-.17.35-.53 1.25-.11 2.23 1.17 2.71.44.16.9.29 1.25.63-.01.56-.01 1.12-.01 1.68zm-12.98-.88c0 2.4 1.9 4.32 4.27 4.32 2.38-.01 4.29-1.92 4.28-4.31 0-2.33-1.93-4.25-4.28-4.25-2.33 0-4.26 1.92-4.27 4.24zM-165.2 149.07c-.28-.29-.52-.59-.32-1.03.19-.41.57-.51.97-.51.9-.02 1.8-.02 2.71-.01.43.01.64-.15.61-.6-.02-.28-.01-.56.01-.84.05-.79.61-1.39 1.4-1.42 1.03-.04 2.06-.05 3.09 0 .96.04 1.51.85 1.45 1.99-.04.85-.04.85.79.86.84 0 1.68 0 2.51.01.4.01.78.09.95.53.17.43-.05.74-.36 1.01-4.61.01-9.21.01-13.81.01z"/>
        <path class="st1" d="M-147.63 128.72c.02 1.47-1.16 2.7-2.61 2.73-1.49.03-2.73-1.17-2.74-2.66-.01-1.45 1.19-2.67 2.65-2.69 1.45-.03 2.68 1.17 2.7 2.62z"/>
      </g>
      <g>
        <path class="st2" d="M34.24 20.26H51.9c.26 0 .51-.01.76.07.88.28 1.19.68 1.11 1.59-.21 2.39-.43 4.78-.65 7.17-.18 1.99-.36 3.99-.54 5.98-.18 1.94-.37 3.87-.56 5.81-.18 1.88-.35 3.76-.54 5.64-.21 2.16-.43 4.32-.66 6.48-.25 2.4-.52 4.8-.79 7.2-.12 1.02-.29 2.02-.42 3.04-.05.44-.23.59-.69.59-7.34-.01-14.67-.01-22.01-.01-2.46 0-4.92-.01-7.38.01-.46 0-.62-.16-.69-.58-.33-1.96-.54-3.94-.76-5.92-.23-2.05-.45-4.09-.66-6.14-.19-1.88-.36-3.76-.55-5.64-.21-2.19-.44-4.38-.65-6.57-.19-1.98-.36-3.96-.55-5.94-.19-2.02-.38-4.04-.56-6.07-.15-1.68-.32-3.36-.45-5.05-.08-.99.48-1.58 1.49-1.66.14-.01.28-.01.43-.01 5.89.01 11.77.01 17.66.01zm-9.16 37.48c-.12-1.1-.24-2.2-.35-3.3-.24-2.36-.47-4.72-.72-7.08-.24-2.36-.49-4.72-.74-7.07-.21-2.05-.41-4.1-.63-6.14-.27-2.67-.56-5.34-.83-8.01-.05-.49-.36-.82-.77-.79-.42.03-.67.33-.64.84.04.61.11 1.22.17 1.82.24 2.33.47 4.66.71 6.99.22 2.09.44 4.18.65 6.27.21 2.03.41 4.07.62 6.1.25 2.39.5 4.77.74 7.16.12 1.16.23 2.32.35 3.47.04.33.2.59.55.69.28.08.5-.03.69-.22.23-.21.2-.47.2-.73zm22.94-31.45v-.09c.01-.52-.25-.84-.68-.86-.39-.01-.68.3-.73.79-.13 1.3-.26 2.6-.4 3.9L45.58 36c-.22 2.09-.42 4.18-.64 6.27-.22 2.1-.43 4.21-.65 6.31-.19 1.79-.38 3.59-.56 5.38-.13 1.31-.27 2.63-.38 3.94-.04.47.24.78.62.81.36.03.73-.29.77-.71.24-2.24.47-4.49.69-6.73.21-2.06.41-4.12.63-6.19.27-2.65.55-5.31.83-7.96.22-2.09.44-4.18.65-6.27.17-1.5.32-3.01.48-4.56zM36.27 57.81c.01.11-.01.3.05.47.12.35.4.52.77.45.41-.07.57-.37.6-.77.09-1.46.18-2.92.28-4.38l.48-7.05c.13-1.94.24-3.88.37-5.82.16-2.41.32-4.82.49-7.22.11-1.56.21-3.12.32-4.67.06-.89.13-1.78.18-2.68.03-.49-.25-.8-.67-.82-.41-.02-.69.23-.73.71-.05.47-.07.93-.1 1.4-.2 2.92-.39 5.84-.59 8.75-.09 1.4-.18 2.81-.27 4.21l-.48 7.14c-.1 1.46-.18 2.92-.28 4.38-.14 1.94-.28 3.88-.42 5.9zm-4.12-.13c-.03-.42-.06-.85-.09-1.27-.12-1.84-.24-3.68-.36-5.53-.16-2.42-.33-4.84-.49-7.27L30.85 38c-.16-2.42-.33-4.84-.49-7.27-.11-1.59-.22-3.17-.33-4.76-.03-.43-.33-.67-.74-.65-.37.02-.64.3-.67.7 0 .08.01.17.01.26.16 2.44.33 4.87.49 7.31.1 1.43.18 2.86.28 4.29.13 2 .27 4 .4 5.99.1 1.46.18 2.92.28 4.38.13 2 .27 3.99.41 5.99.09 1.27.17 2.55.26 3.82.03.44.32.69.73.68.4-.01.66-.29.67-.73v-.33zM53.79 7.48c0 .73-.32 1.11-1.05 1.29-2.03.51-4.05 1.01-6.08 1.52-5.14 1.28-10.28 2.57-15.42 3.85-4.93 1.23-9.87 2.46-14.8 3.69l-3.6.9c-.9.22-1.43-.08-1.66-.98-.32-1.24-.63-2.48-.93-3.72-.21-.87.12-1.4.99-1.62 3.49-.87 6.97-1.74 10.46-2.61.53-.13.53-.13.4-.68-.29-1.14-.57-2.29-.86-3.43-.21-.85.13-1.41.98-1.63 4.82-1.21 9.65-2.41 14.47-3.61.29-.07.58-.16.87-.22.88-.19 1.39.13 1.62 1 .29 1.13.57 2.26.85 3.39.14.56.14.57.7.43 3.45-.86 6.89-1.72 10.33-2.59.97-.24 1.52.07 1.77 1.05.3 1.19.59 2.37.88 3.56.05.16.07.33.08.41zm-29.2.93c0 .52.08.59.58.5.1-.02.2-.02.29-.05 3.43-.86 6.86-1.71 10.29-2.57.54-.13 1.07-.27 1.61-.4.28-.07.36-.21.27-.49-.2-.64-.71-.92-1.45-.74-1.81.45-3.61.9-5.41 1.35-1.75.44-3.5.87-5.25 1.31-.65.17-.94.52-.93 1.09z"/>
      </g>
    </g>
  </switch>
</svg>
