<?xml version="1.0" encoding="UTF-8" standalone="no"?>
<svg
   xmlns:dc="http://purl.org/dc/elements/1.1/"
   xmlns:cc="http://creativecommons.org/ns#"
   xmlns:rdf="http://www.w3.org/1999/02/22-rdf-syntax-ns#"
   xmlns:svg="http://www.w3.org/2000/svg"
   xmlns="http://www.w3.org/2000/svg"
   xmlns:sodipodi="http://sodipodi.sourceforge.net/DTD/sodipodi-0.dtd"
   xmlns:inkscape="http://www.inkscape.org/namespaces/inkscape"
   id="Layer_1"
   viewBox="0 0 64 64"
   version="1.1"
   sodipodi:docname="manage.svg"
   inkscape:version="0.92.2 5c3e80d, 2017-08-06">
  <metadata
     id="metadata35">
    <rdf:RDF>
      <cc:Work
         rdf:about="">
        <dc:format>image/svg+xml</dc:format>
        <dc:type
           rdf:resource="http://purl.org/dc/dcmitype/StillImage" />
        <dc:title></dc:title>
      </cc:Work>
    </rdf:RDF>
  </metadata>
  <defs
     id="defs33" />
  <sodipodi:namedview
     pagecolor="#ffffff"
     bordercolor="#666666"
     borderopacity="1"
     objecttolerance="10"
     gridtolerance="10"
     guidetolerance="10"
     inkscape:pageopacity="0"
     inkscape:pageshadow="2"
     inkscape:window-width="1440"
     inkscape:window-height="775"
     id="namedview31"
     showgrid="false"
     inkscape:zoom="3.6875"
     inkscape:cx="-1.4915254"
     inkscape:cy="32"
     inkscape:window-x="0"
     inkscape:window-y="1"
     inkscape:window-maximized="1"
     inkscape:current-layer="Layer_1" />
  <switch
     id="switch28">
    <g
       id="g26">
      <path
         d="M-157.35-79.54h-14.61c-.53 0-.54 0-.53-.53.03-1.22.19-2.41.57-3.57.55-1.71 1.59-2.99 3.21-3.82 1.61-.81 3.31-1.4 5.01-1.97.65-.22 1.3-.44 1.93-.7.87-.35 1.12-1.06 1.19-1.9.01-.12-.06-.21-.12-.3-1.46-2.06-2.24-4.39-2.64-6.85-.24-1.46-.31-2.92 0-4.37.47-2.19 1.79-3.53 4-3.96 1.3-.25 2.6-.26 3.89.02 2.24.48 3.6 1.95 3.96 4.22.39 2.52-.06 4.94-.85 7.32-.4 1.19-.93 2.31-1.64 3.35-.13.19-.17.37-.13.59l.06.36c.12.73.46 1.25 1.18 1.56.95.41 1.93.7 2.9 1.04 1.44.49 2.84 1.06 4.19 1.76 1.9.99 2.88 2.61 3.32 4.63.19.86.3 1.73.3 2.62 0 .49 0 .49-.49.49-4.89.01-9.8.01-14.7.01z"
         fill="none"
         stroke="#000"
         stroke-width="3"
         stroke-miterlimit="10"
         id="path2" />
      <path
         d="M317.46-77c-.62-.23-1.09-.61-1.25-1.28-.06-.24-.08-.5-.08-.75v-26.91c0-.79.2-1.48.97-1.87.26-.13.53-.19.82-.19h12.19c.5 0 .92.18 1.28.51 2.38 2.2 4.76 4.39 7.14 6.58.48.44.6 1 .6 1.62V-79.09c0 .27-.01.55-.08.81-.16.67-.63 1.05-1.25 1.28h-20.34zm.87-15.5c0 4.32 0 8.65-.01 12.97 0 .3.07.4.38.4 5.95-.01 11.9-.01 17.84 0 .32 0 .38-.1.38-.4-.01-5.98-.01-11.96-.01-17.93 0-.4 0-.4-.4-.4h-5.56c-.28 0-.56-.02-.84-.1-1.04-.28-1.71-1.17-1.72-2.29-.01-1.72 0-3.45 0-5.17 0-.42 0-.42-.41-.42h-9.25c-.41 0-.41 0-.41.42.01 4.31.01 8.61.01 12.92zm12.35-11.97c-.03.01-.05.03-.08.04V-100.5c0 .44.01.44.43.44h3.96c.1 0 .2.03.33-.06-1.55-1.46-3.1-2.91-4.64-4.35z"
         id="path4" />
      <path
         d="M329.41-93.95h5.2c.42 0 .42 0 .42.42 0 .47-.01.95.01 1.42.01.28-.09.37-.36.37-1.79-.01-3.59 0-5.38 0h-5.14c-.4 0-.41-.01-.41-.4 0-.47.01-.95-.01-1.42-.01-.29.1-.38.38-.38 1.77-.01 3.53-.01 5.29-.01zM329.41-89.72h5.2c.42 0 .42 0 .42.42 0 .47-.01.95.01 1.42.01.28-.09.37-.36.37-1.79-.01-3.59 0-5.38 0h-5.14c-.4 0-.41-.01-.41-.4 0-.47.01-.95-.01-1.42-.01-.29.1-.38.38-.38 1.77 0 3.53-.01 5.29-.01zM329.39-83.28h-5.23c-.4 0-.41-.01-.41-.4v-1.39c0-.4.01-.41.41-.41h9.61c.31 0 .63.01.94 0 .24-.01.34.08.34.33-.01.49-.02.99 0 1.48.01.31-.09.4-.39.4-1.67-.01-3.35-.01-5.02-.01h-.25zM321.39-89.96c.73 0 1.35.62 1.35 1.35 0 .73-.62 1.35-1.35 1.35-.74 0-1.34-.6-1.34-1.34 0-.76.6-1.36 1.34-1.36zM320.05-84.36c0-.75.58-1.36 1.32-1.37.73-.01 1.36.6 1.37 1.33.01.73-.6 1.36-1.33 1.36-.75.01-1.36-.58-1.36-1.32zM321.39-94.2c.73 0 1.35.62 1.35 1.35 0 .73-.62 1.34-1.35 1.34-.74 0-1.34-.61-1.34-1.35 0-.74.6-1.34 1.34-1.34z"
         id="path6" />
      <g
         id="g10">
        <path
           class="st1"
           d="M314.7 144.48v-.11c2.89.78 5.43-.07 7.83-1.62-.27-.12-.54-.15-.8-.21-1.83-.4-3.29-1.31-4.14-3.03-.23-.47-.17-.58.36-.59.56-.02 1.13 0 1.69 0-.04-.02-.08-.05-.13-.07-2.31-.98-3.4-2.82-3.73-5.21-.08-.61-.01-.65.61-.46.51.16 1.04.23 1.67.24-.29-.27-.52-.47-.74-.68-1.82-1.78-2.22-3.87-1.13-5.97.32-.61.35-.61.8-.11 1.78 2.01 3.9 3.57 6.36 4.65 1.38.61 2.82 1.03 4.34 1.17.42.04.61-.12.59-.55-.01-.31.01-.62.01-.92.03-3.01 1.48-4.89 4.38-5.68h1.85c.96.26 1.84.68 2.55 1.39.32.32.63.36 1.03.2 1.02-.41 1.93-.99 2.84-1.58h.22c-.45 1.31-1.26 2.4-2.35 3.47 1.23-.1 2.21-.49 3.22-.75v.11c-.69.92-1.5 1.72-2.43 2.39-.21.15-.31.32-.3.59.01.82-.02 1.63-.17 2.44-1.08 6.07-4.34 10.4-10.16 12.68-1.36.53-2.8.73-4.23.94h-2.61c-.07-.02-.14-.05-.21-.06-2.65-.3-5.02-1.27-7.22-2.67z"
           id="path8" />
      </g>
      <g
         id="g18">
        <path
           class="st1"
           d="M-170.61 126.52c.65-1.6 1.85-2.24 3.55-2.2 2.7.05 5.41.01 8.12.01.38 0 .76-.03.98.43.42.85.34 1.11-.57 1.43-.58.2-1.11.44-1.49.96-.24.32-.61.27-.95.27-1.95 0-3.91.02-5.86-.01-.62-.01-.81.2-.81.82.02 3.29.03 6.57 0 9.86-.01.64.21.79.82.79 5.65-.02 11.3-.03 16.94.01.99.01 1.46-.55 1.9-1.25.13-.21.19-.48.28-.72.15-.39.28-.8.83-.72.63.09.99.46 1 1.04.01 1.01.03 2.02-.01 3.03-.07 1.89-1.3 3.06-3.17 3.06-6.03 0-12.07-.03-18.1.02-1.67.01-2.8-.61-3.45-2.13-.01-4.91-.01-9.81-.01-14.7zm12.24 15.21h2.83c.4 0 .74-.12.75-.6.02-.51-.33-.66-.76-.66-1.82-.01-3.64 0-5.47 0-.44 0-.78.15-.79.65-.01.52.38.61.8.62.89-.01 1.77-.01 2.64-.01z"
           id="path12" />
        <path
           class="st1"
           d="M-141.61 129.61c-.32.31-.73.43-1.14.57-1.41.49-1.85 1.54-1.22 2.9.52 1.12.48 1.19-.21 1.92-.48.51-.96.55-1.55.24-.53-.28-1.07-.55-1.71-.38-.84.23-1.28.82-1.48 1.62-.16.63-.44 1.04-1.17 1.03-1.07-.01-1.22-.07-1.56-.97-.22-.58-.4-1.18-1.02-1.5-.72-.37-1.4-.24-2.09.11-.94.48-1.7.21-2.16-.73-.23-.48.03-.88.24-1.27.41-.74.43-1.45-.02-2.19-.3-.49-.79-.64-1.27-.81-1.04-.37-1.32-.9-1.06-1.98.13-.53.58-.65 1.01-.78.83-.27 1.46-.7 1.63-1.63.1-.55-.12-1.01-.34-1.47-.44-.93-.15-1.74.77-2.15.27-.12.54-.09.81.04.35.16.7.33 1.07.45.87.27 1.8-.18 2.19-1.01.24-.52.29-1.13.75-1.55h1.68c.26.27.4.6.53.95.64 1.71 1.53 2.07 3.18 1.3.81-.38 1.06-.31 1.75.36.51.49.5 1 .15 1.56-.07.11-.11.23-.17.35-.53 1.25-.11 2.23 1.17 2.71.44.16.9.29 1.25.63-.01.56-.01 1.12-.01 1.68zm-12.98-.88c0 2.4 1.9 4.32 4.27 4.32 2.38-.01 4.29-1.92 4.28-4.31 0-2.33-1.93-4.25-4.28-4.25-2.33 0-4.26 1.92-4.27 4.24zM-165.2 149.07c-.28-.29-.52-.59-.32-1.03.19-.41.57-.51.97-.51.9-.02 1.8-.02 2.71-.01.43.01.64-.15.61-.6-.02-.28-.01-.56.01-.84.05-.79.61-1.39 1.4-1.42 1.03-.04 2.06-.05 3.09 0 .96.04 1.51.85 1.45 1.99-.04.85-.04.85.79.86.84 0 1.68 0 2.51.01.4.01.78.09.95.53.17.43-.05.74-.36 1.01-4.61.01-9.21.01-13.81.01z"
           id="path14" />
        <path
           class="st1"
           d="M-147.63 128.72c.02 1.47-1.16 2.7-2.61 2.73-1.49.03-2.73-1.17-2.74-2.66-.01-1.45 1.19-2.67 2.65-2.69 1.45-.03 2.68 1.17 2.7 2.62z"
           id="path16" />
      </g>
      <g
         id="g24">
        <path
           class="st1"
           d="M46.72 25.95c.34-.38.67-.79 1.03-1.15 1.19-1.21 2.39-2.41 3.6-3.6 1.22-1.21 2.62-1.22 3.85-.01 2 1.98 3.99 3.98 5.97 5.97 1.1 1.11 1.11 2.54 0 3.67-1.09 1.12-2.2 2.21-3.29 3.31-3.62 3.64-7.23 7.29-10.86 10.92-.38.38-.54.78-.54 1.32.02 4.31.02 8.63.01 12.94 0 1.45-.62 2.35-1.82 2.7-.27.08-.55.09-.83.09H4.71C3.06 62.11 2 61.04 2 59.36V4.66c0-1.73 1.06-2.77 2.83-2.77h38.89c1.7 0 2.75 1.07 2.77 2.85.02 2.28.01 4.55.01 6.83v14.25c.07.03.15.08.22.13zm-5.41 25.06c-.05-.02-.1-.04-.14-.07-.73.74-1.46 1.47-2.19 2.21-.31.32-.66.57-1.11.68-2.63.6-5.25 1.22-7.88 1.81-2.06.47-3.67-1.16-3.19-3.2.59-2.51 1.19-5.01 1.76-7.52.19-.85.58-1.55 1.2-2.16 3.65-3.64 7.29-7.29 10.95-10.92.43-.43.61-.86.61-1.47-.02-7.49-.01-14.98-.01-22.47 0-.91 0-.91-.92-.91H8.87c-.55.01-1.28-.24-1.6.13-.33.38-.16 1.1-.15 1.68.01 2.01.04 4.03.04 6.04 0 2.17-.03 4.35-.03 6.52 0 1.81.03 3.63.03 5.44 0 2.15-.03 4.31-.03 6.46 0 1.81.04 3.63.04 5.44 0 2.91-.03 5.82-.04 8.73-.01 2.93 0 5.86 0 8.79 0 .77 0 .77.75.77h32.84c.31 0 .62.03.62-.43-.03-1.84-.03-3.69-.03-5.55zm-8.37-1.39c.66-.15 1.32-.34 1.98-.44.65-.1 1.12-.41 1.58-.87 4.83-4.85 9.68-9.69 14.52-14.53 1.41-1.41 2.82-2.83 4.24-4.23.31-.31.34-.52.01-.83-.58-.55-1.15-1.11-1.69-1.7-.33-.36-.54-.31-.86.01-6.34 6.36-12.7 12.71-19.05 19.06-.17.17-.35.34-.41.58-.2.87-.39 1.75-.59 2.63-.05.23 0 .35.27.32z"
           id="path20" />
        <path
           class="st1"
           d="M24.26 24.91c3.37 0 6.75-.01 10.12.01 1.95.01 3.22 1.85 2.48 3.56-.49 1.14-1.43 1.62-2.63 1.62-4.69.01-9.38 0-14.08 0-1.94 0-3.87.01-5.81-.01-1.49-.01-2.49-.79-2.77-2.08-.35-1.63.88-3.09 2.62-3.1 3.37-.01 6.72 0 10.07 0zM24.32 12.54c3.39 0 6.79-.01 10.18 0 1.29 0 2.29.86 2.53 2.11.22 1.17-.47 2.37-1.62 2.84-.3.12-.61.16-.94.16H14.11c-1.46 0-2.63-1.17-2.62-2.57.02-1.42 1.17-2.53 2.65-2.54h10.18z"
           id="path22" />
      </g>
    </g>
  </switch>
  <path
     style="fill:#ffffff;stroke-width:0.27118644"
     d="m 7.2135593,32.043123 c 0,-13.638655 0.091525,-24.835265 0.2033899,-24.8813557 0.1118644,-0.046091 7.7389828,-0.050564 16.9491528,-0.00994 l 16.745762,0.073861 V 19.222046 31.218403 l -5.712962,5.692493 c -3.142129,3.130872 -5.951239,6.019691 -6.242467,6.419596 -0.304422,0.418023 -0.976456,2.646745 -1.580949,5.243024 -1.141535,4.902861 -1.134192,5.939647 0.04794,6.767642 0.993393,0.695799 1.824979,0.584938 10.189836,-1.358424 0.348478,-0.08096 1.233223,-0.708082 1.966102,-1.393603 l 1.332504,-1.2464 v 2.748973 2.748974 H 24.162712 7.2135593 Z M 35.520705,30.005325 c 0.941961,-0.358133 1.634302,-1.517615 1.601304,-2.681742 -0.02069,-0.729838 -0.240626,-1.166789 -0.870649,-1.729713 L 35.408393,24.840678 H 24.298305 13.188218 L 12.34525,25.59387 c -0.630022,0.562924 -0.84996,0.999875 -0.870648,1.729713 -0.03173,1.119294 0.650112,2.317657 1.517479,2.667035 0.815306,0.328407 21.667726,0.34202 22.528624,0.01471 z m 0.406923,-12.657716 c 0.347247,-0.243222 0.807081,-0.862785 1.021855,-1.376807 0.351119,-0.840347 0.341394,-1.034808 -0.09644,-1.928519 C 36.01903,12.3399 36.159611,12.357453 23.96525,12.433141 l -11.044925,0.06855 -0.745522,0.745763 c -1.316043,1.316466 -0.857079,3.579424 0.869269,4.286005 0.298305,0.122094 5.427084,0.229724 11.397286,0.239178 9.614573,0.01522 10.927055,-0.03334 11.486274,-0.425032 z"
     id="path37"
     inkscape:connector-curvature="0" />
  <path
     style="fill:#ffffff;stroke-width:0.27118644"
     d="m 33.107412,47.998347 c 0.357993,-1.540036 0.377309,-1.561628 10.078459,-11.265586 5.345878,-5.347425 9.849018,-9.722592 10.006976,-9.722592 0.355468,0 2.020712,1.690864 2.020712,2.051801 0,0.144797 -4.423728,4.672663 -9.830508,10.061925 -8.190513,8.163975 -9.988853,9.829136 -10.779661,9.981356 -0.522034,0.100484 -1.152892,0.239711 -1.401906,0.309394 -0.414389,0.11596 -0.422361,-0.004 -0.09407,-1.416298 z"
     id="path41"
     inkscape:connector-curvature="0" />
  <path
     style="fill:#ffffff;stroke-width:0.27118644"
     d="m 7.3491525,32.727264 c 0,-13.262377 -0.06371,-24.279438 -0.1415771,-24.4823572 C 7.129708,8.0419875 7.2212334,7.6964135 7.4109653,7.4769644 7.7089752,7.1322779 10.035372,7.0880201 24.501695,7.1518274 l 16.745763,0.073861 V 19.201041 31.176393 l -6.212166,6.255873 c -5.135146,5.171273 -6.262062,6.443935 -6.499954,7.340615 -1.223482,4.61164 -1.949115,8.230246 -1.804731,8.999881 0.199007,1.0608 1.292934,1.98317 2.352026,1.98317 0.683371,0 7.338875,-1.373158 8.760713,-1.807504 0.290449,-0.08873 1.175195,-0.773326 1.966102,-1.521331 l 1.43801,-1.360008 v 2.886793 2.886796 H 24.298305 7.3491525 Z M 36.388567,29.243179 c 0.84935,-0.950853 0.983048,-1.786198 0.46711,-2.918553 -0.664366,-1.458125 -0.891501,-1.484459 -12.747295,-1.477918 -11.885277,0.0066 -11.587759,-0.03032 -12.388507,1.535464 -0.659618,1.289817 0.03359,3.045847 1.429445,3.621057 0.314993,0.129804 5.494687,0.211162 11.510433,0.180796 l 10.93772,-0.05521 z m -0.13094,-12.375382 c 1.188119,-1.188121 1.22816,-2.252106 0.13098,-3.480468 L 35.597551,12.501695 24.725407,12.42221 c -9.489986,-0.06938 -10.987754,-0.02462 -11.78154,0.352053 -1.396768,0.66281 -1.869671,2.068293 -1.194508,3.550116 0.63448,1.392532 1.080833,1.443346 12.779455,1.454837 l 10.806779,0.01061 z"
     id="path23"
     inkscape:connector-curvature="0" />
  <path
     style="fill:#ffffff;stroke-width:0.27118644"
     d="m 32.840678,49.237118 c 0,-0.160523 0.131339,-0.813456 0.291865,-1.450962 0.258556,-1.026816 1.419031,-2.28595 10.168194,-11.03265 l 9.876329,-9.873549 1.15114,1.15114 1.15114,1.15114 -9.759909,9.762734 c -6.466487,6.468358 -10.034474,9.845583 -10.573571,10.008254 -1.640962,0.495157 -2.305188,0.576959 -2.305188,0.283893 z"
     id="path25"
     inkscape:connector-curvature="0" />
</svg>
