<svg id="Layer_1" xmlns="http://www.w3.org/2000/svg" viewBox="0 0 64 64">
  <switch>
    <g>
      <path d="M-157.35-79.54h-14.61c-.53 0-.54 0-.53-.53.03-1.22.19-2.41.57-3.57.55-1.71 1.59-2.99 3.21-3.82 1.61-.81 3.31-1.4 5.01-1.97.65-.22 1.3-.44 1.93-.7.87-.35 1.12-1.06 1.19-1.9.01-.12-.06-.21-.12-.3-1.46-2.06-2.24-4.39-2.64-6.85-.24-1.46-.31-2.92 0-4.37.47-2.19 1.79-3.53 4-3.96 1.3-.25 2.6-.26 3.89.02 2.24.48 3.6 1.95 3.96 4.22.39 2.52-.06 4.94-.85 7.32-.4 1.19-.93 2.31-1.64 3.35-.13.19-.17.37-.13.59l.06.36c.12.73.46 1.25 1.18 1.56.95.41 1.93.7 2.9 1.04 1.44.49 2.84 1.06 4.19 1.76 1.9.99 2.88 2.61 3.32 4.63.19.86.3 1.73.3 2.62 0 .49 0 .49-.49.49-4.89.01-9.8.01-14.7.01z" fill="none" stroke="#000" stroke-width="3" stroke-miterlimit="10"/>
      <path d="M317.46-77c-.62-.23-1.09-.61-1.25-1.28-.06-.24-.08-.5-.08-.75v-26.91c0-.79.2-1.48.97-1.87.26-.13.53-.19.82-.19h12.19c.5 0 .92.18 1.28.51 2.38 2.2 4.76 4.39 7.14 6.58.48.44.6 1 .6 1.62V-79.09c0 .27-.01.55-.08.81-.16.67-.63 1.05-1.25 1.28h-20.34zm.87-15.5c0 4.32 0 8.65-.01 12.97 0 .3.07.4.38.4 5.95-.01 11.9-.01 17.84 0 .32 0 .38-.1.38-.4-.01-5.98-.01-11.96-.01-17.93 0-.4 0-.4-.4-.4h-5.56c-.28 0-.56-.02-.84-.1-1.04-.28-1.71-1.17-1.72-2.29-.01-1.72 0-3.45 0-5.17 0-.42 0-.42-.41-.42h-9.25c-.41 0-.41 0-.41.42.01 4.31.01 8.61.01 12.92zm12.35-11.97c-.03.01-.05.03-.08.04V-100.5c0 .44.01.44.43.44h3.96c.1 0 .2.03.33-.06-1.55-1.46-3.1-2.91-4.64-4.35z"/>
      <path d="M329.41-93.95h5.2c.42 0 .42 0 .42.42 0 .47-.01.95.01 1.42.01.28-.09.37-.36.37-1.79-.01-3.59 0-5.38 0h-5.14c-.4 0-.41-.01-.41-.4 0-.47.01-.95-.01-1.42-.01-.29.1-.38.38-.38 1.77-.01 3.53-.01 5.29-.01zM329.41-89.72h5.2c.42 0 .42 0 .42.42 0 .47-.01.95.01 1.42.01.28-.09.37-.36.37-1.79-.01-3.59 0-5.38 0h-5.14c-.4 0-.41-.01-.41-.4 0-.47.01-.95-.01-1.42-.01-.29.1-.38.38-.38 1.77 0 3.53-.01 5.29-.01zM329.39-83.28h-5.23c-.4 0-.41-.01-.41-.4v-1.39c0-.4.01-.41.41-.41h9.61c.31 0 .63.01.94 0 .24-.01.34.08.34.33-.01.49-.02.99 0 1.48.01.31-.09.4-.39.4-1.67-.01-3.35-.01-5.02-.01h-.25zM321.39-89.96c.73 0 1.35.62 1.35 1.35 0 .73-.62 1.35-1.35 1.35-.74 0-1.34-.6-1.34-1.34 0-.76.6-1.36 1.34-1.36zM320.05-84.36c0-.75.58-1.36 1.32-1.37.73-.01 1.36.6 1.37 1.33.01.73-.6 1.36-1.33 1.36-.75.01-1.36-.58-1.36-1.32zM321.39-94.2c.73 0 1.35.62 1.35 1.35 0 .73-.62 1.34-1.35 1.34-.74 0-1.34-.61-1.34-1.35 0-.74.6-1.34 1.34-1.34z"/>
      <g>
        <path class="st1" d="M314.7 144.48v-.11c2.89.78 5.43-.07 7.83-1.62-.27-.12-.54-.15-.8-.21-1.83-.4-3.29-1.31-4.14-3.03-.23-.47-.17-.58.36-.59.56-.02 1.13 0 1.69 0-.04-.02-.08-.05-.13-.07-2.31-.98-3.4-2.82-3.73-5.21-.08-.61-.01-.65.61-.46.51.16 1.04.23 1.67.24-.29-.27-.52-.47-.74-.68-1.82-1.78-2.22-3.87-1.13-5.97.32-.61.35-.61.8-.11 1.78 2.01 3.9 3.57 6.36 4.65 1.38.61 2.82 1.03 4.34 1.17.42.04.61-.12.59-.55-.01-.31.01-.62.01-.92.03-3.01 1.48-4.89 4.38-5.68h1.85c.96.26 1.84.68 2.55 1.39.32.32.63.36 1.03.2 1.02-.41 1.93-.99 2.84-1.58h.22c-.45 1.31-1.26 2.4-2.35 3.47 1.23-.1 2.21-.49 3.22-.75v.11c-.69.92-1.5 1.72-2.43 2.39-.21.15-.31.32-.3.59.01.82-.02 1.63-.17 2.44-1.08 6.07-4.34 10.4-10.16 12.68-1.36.53-2.8.73-4.23.94h-2.61c-.07-.02-.14-.05-.21-.06-2.65-.3-5.02-1.27-7.22-2.67z"/>
      </g>
      <g>
        <path class="st1" d="M-170.61 126.52c.65-1.6 1.85-2.24 3.55-2.2 2.7.05 5.41.01 8.12.01.38 0 .76-.03.98.43.42.85.34 1.11-.57 1.43-.58.2-1.11.44-1.49.96-.24.32-.61.27-.95.27-1.95 0-3.91.02-5.86-.01-.62-.01-.81.2-.81.82.02 3.29.03 6.57 0 9.86-.01.64.21.79.82.79 5.65-.02 11.3-.03 16.94.01.99.01 1.46-.55 1.9-1.25.13-.21.19-.48.28-.72.15-.39.28-.8.83-.72.63.09.99.46 1 1.04.01 1.01.03 2.02-.01 3.03-.07 1.89-1.3 3.06-3.17 3.06-6.03 0-12.07-.03-18.1.02-1.67.01-2.8-.61-3.45-2.13-.01-4.91-.01-9.81-.01-14.7zm12.24 15.21h2.83c.4 0 .74-.12.75-.6.02-.51-.33-.66-.76-.66-1.82-.01-3.64 0-5.47 0-.44 0-.78.15-.79.65-.01.52.38.61.8.62.89-.01 1.77-.01 2.64-.01z"/>
        <path class="st1" d="M-141.61 129.61c-.32.31-.73.43-1.14.57-1.41.49-1.85 1.54-1.22 2.9.52 1.12.48 1.19-.21 1.92-.48.51-.96.55-1.55.24-.53-.28-1.07-.55-1.71-.38-.84.23-1.28.82-1.48 1.62-.16.63-.44 1.04-1.17 1.03-1.07-.01-1.22-.07-1.56-.97-.22-.58-.4-1.18-1.02-1.5-.72-.37-1.4-.24-2.09.11-.94.48-1.7.21-2.16-.73-.23-.48.03-.88.24-1.27.41-.74.43-1.45-.02-2.19-.3-.49-.79-.64-1.27-.81-1.04-.37-1.32-.9-1.06-1.98.13-.53.58-.65 1.01-.78.83-.27 1.46-.7 1.63-1.63.1-.55-.12-1.01-.34-1.47-.44-.93-.15-1.74.77-2.15.27-.12.54-.09.81.04.35.16.7.33 1.07.45.87.27 1.8-.18 2.19-1.01.24-.52.29-1.13.75-1.55h1.68c.26.27.4.6.53.95.64 1.71 1.53 2.07 3.18 1.3.81-.38 1.06-.31 1.75.36.51.49.5 1 .15 1.56-.07.11-.11.23-.17.35-.53 1.25-.11 2.23 1.17 2.71.44.16.9.29 1.25.63-.01.56-.01 1.12-.01 1.68zm-12.98-.88c0 2.4 1.9 4.32 4.27 4.32 2.38-.01 4.29-1.92 4.28-4.31 0-2.33-1.93-4.25-4.28-4.25-2.33 0-4.26 1.92-4.27 4.24zM-165.2 149.07c-.28-.29-.52-.59-.32-1.03.19-.41.57-.51.97-.51.9-.02 1.8-.02 2.71-.01.43.01.64-.15.61-.6-.02-.28-.01-.56.01-.84.05-.79.61-1.39 1.4-1.42 1.03-.04 2.06-.05 3.09 0 .96.04 1.51.85 1.45 1.99-.04.85-.04.85.79.86.84 0 1.68 0 2.51.01.4.01.78.09.95.53.17.43-.05.74-.36 1.01-4.61.01-9.21.01-13.81.01z"/>
        <path class="st1" d="M-147.63 128.72c.02 1.47-1.16 2.7-2.61 2.73-1.49.03-2.73-1.17-2.74-2.66-.01-1.45 1.19-2.67 2.65-2.69 1.45-.03 2.68 1.17 2.7 2.62z"/>
      </g>
      <g>
        <path class="st1" d="M26.55 42.93c-.22-4.95 1.98-8.83 5.91-11.86 1.86-1.43 3.9-2.61 5.81-3.97 1.52-1.08 2.98-2.27 3.69-4.06 1.84-4.61.65-11.56-6.38-13.71-2.83-.86-5.67-1-8.46.16-3.35 1.39-5.22 3.92-5.72 7.49-.1.73-.12 1.47-.15 2.2-.08 2.01-1.82 3.67-3.82 3.66-2.08 0-3.85-1.61-3.87-3.67-.04-4.61 1.08-8.85 4.22-12.38 2.64-2.97 6-4.74 9.85-5.45 5.88-1.09 11.34.09 16.15 3.7 3.7 2.77 5.76 6.58 6.42 11.14.48 3.26.23 6.45-1.01 9.54-1.15 2.89-3.15 5.1-5.55 7-1.58 1.25-3.3 2.29-4.97 3.4-.93.62-1.82 1.29-2.63 2.07-1.22 1.18-1.73 2.63-1.77 4.28-.02.76.01 1.52-.01 2.28-.05 2.08-1.84 3.8-3.93 3.79-2.05 0-3.77-1.73-3.79-3.83 0-.54.01-1.1.01-1.78zM35.08 58.65c0 2.39-1.94 4.36-4.32 4.39-2.4.02-4.46-2.01-4.47-4.42-.01-2.4 1.99-4.39 4.39-4.39 2.5 0 4.4 1.91 4.4 4.42z"/>
      </g>
    </g>
  </switch>
</svg>
