USER_ID,FORENAMES,SURNAME,EMAIL,CONTACT_NUMBER,USER_ROLE,DEPARTMENT_ID,ENABLED
0102434t,Joe ,Bloggs,joe@email.com,91495147,examiner,MD,YES
0118634t,Mary,Bloggs,mary@email.com,91495541,exam_admin,MD,NO
0235468t,Susan,Bloggs,susan@email.com,91495546,station_manager,MD,YES
