STUDENT_ID,CANDIDATE_NUMBER,FORENAMES,SURNAME,DOB,NATIONALITY,GENDER,EMAIL,COURSE_ID,COURSE_YEAR,MODULE_ID
0160163s,,Joe,Bloggs,01.12.1983,NL,M,contact@email.com,MB,1,BO111
0190192s,,Mary,Bloggs,02.09.1986,BE,F,mary@email.com,MB,2,FR125
